{
  "host": "localhost",
  "port": 8080,
  "public": "../public/",
  "paginate": {
    "default": 10,
    "max": 50
  },
  "mssql": "mssql://urademoadmin:passW0rdpassW0rd!@urademosqlserver.database.windows.net:1433/urademosql"
  
}


